0 0.08046875 0.4236111111111111 0.028125 0.05
0 0.1609375 0.45555555555555555 0.029687500000000002 0.075
0 0.546875 0.47222222222222227 0.040625 0.09444444444444444
0 0.8660156250000001 0.40555555555555556 0.02421875 0.061111111111111116
0 0.251953125 0.4083333333333333 0.02421875 0.04722222222222222
