filename,width,height,class,xmin,ymin,xmax,ymax
video6-frame-000004.jpg,1920,1080,ccb,955,196,1274,635
video6-frame-000009.jpg,1920,1080,ccb,963,255,1306,655
video6-frame-000010.jpg,1920,1080,ccb,986,245,1296,653
video6-frame-000181.jpg,1920,1080,csb,1747,176,1825,284
video6-frame-000025.jpg,1920,1080,ccb,980,216,1249,641
video6-frame-000120.jpg,1920,1080,ccb,988,255,1243,651
video6-frame-000258.jpg,1920,1080,csb,570,557,607,597
video6-frame-000258.jpg,1920,1080,csb,830,534,859,569
video6-frame-000184.jpg,1920,1080,csb,1557,314,1604,374
video6-frame-000081.jpg,1920,1080,ccb,900,229,1216,641
video6-frame-000133.jpg,1920,1080,ccb,939,221,1263,655
video6-frame-000257.jpg,1920,1080,csb,601,552,635,594
video6-frame-000257.jpg,1920,1080,csb,837,533,866,570
video6-frame-000001.jpg,1920,1080,ccb,976,159,1268,618
video6-frame-000214.jpg,1920,1080,ccb,994,204,1280,619
video6-frame-000006.jpg,1920,1080,ccb,963,259,1306,672
video6-frame-000003.jpg,1920,1080,ccb,945,204,1247,627
video6-frame-000340.jpg,1920,1080,ccb,947,192,1241,631
video6-frame-000008.jpg,1920,1080,ccb,965,216,1247,645
video6-frame-000066.jpg,1920,1080,ccb,974,251,1278,661
video6-frame-000127.jpg,1920,1080,ccb,982,249,1274,619
video6-frame-000005.jpg,1920,1080,ccb,968,196,1300,665
video6-frame-000007.jpg,1920,1080,ccb,927,255,1312,633
video6-frame-000028.jpg,1920,1080,ccb,945,241,1280,641
