1 0.05625 0.23333333333333334 0.065625 0.1388888888888889
0 0.503125 0.7291666666666667 0.17500000000000002 0.4083333333333333
0 0.7328125000000001 0.125 0.09375 0.17777777777777778
1 0.5593750000000001 0.18472222222222223 0.053125000000000006 0.11944444444444445
0 0.36250000000000004 0.1875 0.053125000000000006 0.09166666666666667
