0 0.20625 0.17962962962962964 0.03854166666666667 0.12037037037037038
0 0.3854166666666667 0.19953703703703704 0.03958333333333333 0.10833333333333334
1 0.2669270833333333 0.3231481481481482 0.025520833333333333 0.061111111111111116
